…
**Note**: Beyond using the `is.na` argument, further quality control
should be done while assessing missing values from the dataset. For
example, in my initial viewing of `summary(trees)` when reading in the
data (as seen above), I noticed that the `diameter` variable ranges from
0.00 to 435.00. Let’s take a closer look using the `dplyr::count`
function.

``` r
# Count number of unique diameter values
trees %>%
  count(diameter) 
```

    ## # A tibble: 520 × 2
    ##    diameter     n
    ##       <dbl> <int>
    ##  1     0       92
    ##  2     0.25     6
    ##  3     0.5     22
    ##  4     0.75     2
    ##  5     0.8      1
    ##  6     1       60
    ##  7     1.05     1
    ##  8     1.25    10
    ##  9     1.3      2
    ## 10     1.5     76
    ## # ℹ 510 more rows
…
## Exercise 8: Use a density plot to explore any of your variables (that are suitable for this type of plot).

**Explanation**: Finally, I am interested in exploring tree `diameter`
of tree species. In order to do this, I will create a ridgeline plot
using the `ggridges` package. I will plot the `diameter` data for a
subset of the data that I am particularly intested in, since the full
dataset contains 634 species belonging to 97 genera!

``` r
# First, let's confirm how many observations per species there are 
trees2 %>%
  count(common_name) # there are 634 species in this dataset 
```

    ## # A tibble: 634 × 2
    ##    common_name                   n
    ##    <chr>                     <int>
    ##  1 ACCOLADE CHERRY              60
    ##  2 AKEBONO FLOWERING CHERRY   2384
    ##  3 ALDER SPECIES                16
    ##  4 ALDERLEAFED MOUNTAIN ASH    172
    ##  5 ALIA'S MAGNOLIA               3
    ##  6 ALLEGHENY SERVICEBERRY        6
    ##  7 ALLGOLD EUROPEAN ASH         78
    ##  8 ALMIRA NORWAY MAPLE           9
    ##  9 ALPINE FIR                    1
    ## 10 AMANOGAWA JAPANESE CHERRY    68
    ## # ℹ 624 more rows

``` r
# Next, let's confirm how many observations per genus there are 
trees2 %>%
  count(genus_name) # there are 97 genera in this dataset
```

    ## # A tibble: 97 × 2
    ##    genus_name      n
    ##    <chr>       <int>
    ##  1 ABIES         190
    ##  2 ACER        36062
    ##  3 AESCULUS     2570
    ##  4 AILANTHUS       4
    ##  5 ALBIZIA         1
    ##  6 ALNUS          74
    ##  7 AMELANCHIER   226
    ##  8 ARALIA          4
    ##  9 ARAUCARIA      10
    ## 10 ARBUTUS        10
    ## # ℹ 87 more rows
…
