…
``` r
# compute number of (unique spp.) observations for neighborhood variable
task1.2.2 <- vancouver_trees %>% 
  dplyr::group_by(neighbourhood_name) %>% 
  dplyr::summarise(species_richness = n_distinct(common_name)) %>%
  dplyr::arrange(species_richness) %>%
  ungroup()
print(task1.2.2)
```

    ## # A tibble: 22 × 2
    ##    neighbourhood_name  species_richness
    ##    <chr>                          <int>
    ##  1 DOWNTOWN                         168
    ##  2 STRATHCONA                       216
    ##  3 FAIRVIEW                         223
    ##  4 WEST END                         231
    ##  5 KILLARNEY                        237
    ##  6 SOUTH CAMBIE                     237
    ##  7 OAKRIDGE                         256
    ##  8 ARBUTUS-RIDGE                    260
    ##  9 MOUNT PLEASANT                   269
    ## 10 VICTORIA-FRASERVIEW              271
    ## # ℹ 12 more rows
…
    ## `summarise()` has grouped output by 'neighbourhood_name'. You can override
    ## using the `.groups` argument.

``` r
print(task1.2.3.1)  
```

    ## # A tibble: 22 × 99
    ## # Rowwise: 
    ##    neighbourhood_name       ABIES  ACER AESCULUS AMELANCHIER BETULA CALOCEDRUS
    ##    <chr>                    <int> <int>    <int>       <int>  <int>      <int>
    ##  1 ARBUTUS-RIDGE               18   867      134          19     77          1
    ##  2 DOWNTOWN                     1  2043       16           0     12          3
    ##  3 DUNBAR-SOUTHLANDS           10  2464      289           4    178          0
    ##  4 FAIRVIEW                     4  1403       48           4     30          0
    ##  5 GRANDVIEW-WOODLAND           5  1829      102          12     52          0
    ##  6 HASTINGS-SUNRISE             8  2508       96          58     18          2
    ##  7 KENSINGTON-CEDAR COTTAGE    23  2438      214          12     76          3
    ##  8 KERRISDALE                  10  1900      130           6    234          0
    ##  9 KILLARNEY                    1  1357        4           3     34          0
    ## 10 KITSILANO                   17  2211      298           2     68          5
    ## # ℹ 12 more rows
    ## # ℹ 92 more variables: CARPINUS <int>, CATALPA <int>, CEDRUS <int>,
    ## #   CELTIS <int>, CERCIDIPHYLLUM <int>, CHAMAECYPARIS <int>, CORNUS <int>,
    ## #   CORYLUS <int>, CRATAEGUS <int>, DAVIDIA <int>, FAGUS <int>, FRAXINUS <int>,
    ## #   GINKGO <int>, GLEDITSIA <int>, ILEX <int>, JUGLANS <int>, JUNIPERUS <int>,
    ## #   LABURNUM <int>, LIQUIDAMBAR <int>, LIRIODENDRON <int>, MAGNOLIA <int>,
    ## #   MALUS <int>, MESPILUS <int>, METASEQUOIA <int>, NYSSA <int>, …
…
``` r
# create a dataframe with the new location column
task2.3.1 <- vancouver_trees %>% 
  dplyr::group_by(neighbourhood_name) %>% 
  dplyr::summarise(species_richness = n_distinct(common_name),  # calculate spp. richness
            mean_longitude = mean(longitude, na.rm = TRUE)) %>% # calculate avg longitude
  dplyr::mutate(mean_longitude = mean_longitude*(-1)) %>%       # make value positive
  dplyr::mutate(location = factor(case_when(mean_longitude < 123.100796 ~ "East",
                                 mean_longitude > 123.100796 ~ "West"), 
                                 levels = c('East', 'West')))   # add location column
print(task2.3.1)
```

    ## # A tibble: 22 × 4
    ##    neighbourhood_name       species_richness mean_longitude location
    ##    <chr>                               <int>          <dbl> <fct>   
    ##  1 ARBUTUS-RIDGE                         260           123. West    
    ##  2 DOWNTOWN                              168           123. West    
    ##  3 DUNBAR-SOUTHLANDS                     364           123. West    
    ##  4 FAIRVIEW                              223           123. West    
    ##  5 GRANDVIEW-WOODLAND                    310           123. East    
    ##  6 HASTINGS-SUNRISE                      347           123. East    
    ##  7 KENSINGTON-CEDAR COTTAGE              323           123. East    
    ##  8 KERRISDALE                            284           123. West    
    ##  9 KILLARNEY                             237           123. East    
    ## 10 KITSILANO                             336           123. West    
    ## # ℹ 12 more rows
…
To save time, I will simply add the `location` column (that I just
created in this section Task 2.3) to the previous dataframe that I
created back in Task 1.2. I can do this because the dimensions are the
same (22 rows = 22 neighborhoods) and in both cases the neighborhoods
are sorted alphabetically, so the new `location` column can be added
seamlessly.

``` r
# view old dataframe from Task 1.2, Research Question 3
print(task1.2.3.3)  # 22 rows alphabetically from ARBUTUS-RIDGE to WEST POINT GREY
```

    ## # A tibble: 22 × 99
    ## # Rowwise: 
    ##    neighbourhood_name        ABIES  ACER AESCULUS AMELANCHIER  BETULA CALOCEDRUS
    ##    <chr>                     <dbl> <dbl>    <dbl>       <dbl>   <dbl>      <dbl>
    ##  1 ARBUTUS-RIDGE           3.48e-3 0.168 0.0259      0.00368  0.0149    0.000193
    ##  2 DOWNTOWN                1.94e-4 0.396 0.00310     0        0.00233   0.000582
    ##  3 DUNBAR-SOUTHLANDS       1.06e-3 0.262 0.0307      0.000425 0.0189    0       
    ##  4 FAIRVIEW                1.00e-3 0.351 0.0120      0.00100  0.00750   0       
    ##  5 GRANDVIEW-WOODLAND      7.46e-4 0.273 0.0152      0.00179  0.00776   0       
    ##  6 HASTINGS-SUNRISE        7.59e-4 0.238 0.00910     0.00550  0.00171   0.000190
    ##  7 KENSINGTON-CEDAR COTTA… 2.08e-3 0.221 0.0194      0.00109  0.00688   0.000272
    ##  8 KERRISDALE              1.44e-3 0.274 0.0187      0.000865 0.0337    0       
    ##  9 KILLARNEY               1.63e-4 0.221 0.000651    0.000488 0.00553   0       
    ## 10 KITSILANO               2.09e-3 0.272 0.0367      0.000246 0.00838   0.000616
    ## # ℹ 12 more rows
    ## # ℹ 92 more variables: CARPINUS <dbl>, CATALPA <dbl>, CEDRUS <dbl>,
    ## #   CELTIS <dbl>, CERCIDIPHYLLUM <dbl>, CHAMAECYPARIS <dbl>, CORNUS <dbl>,
    ## #   CORYLUS <dbl>, CRATAEGUS <dbl>, DAVIDIA <dbl>, FAGUS <dbl>, FRAXINUS <dbl>,
    ## #   GINKGO <dbl>, GLEDITSIA <dbl>, ILEX <dbl>, JUGLANS <dbl>, JUNIPERUS <dbl>,
    ## #   LABURNUM <dbl>, LIQUIDAMBAR <dbl>, LIRIODENDRON <dbl>, MAGNOLIA <dbl>,
    ## #   MALUS <dbl>, MESPILUS <dbl>, METASEQUOIA <dbl>, NYSSA <dbl>, …

``` r
# view new dataframe for *new* research question from this Task 2.3
print(task2.3.1)    # 22 rows alphabetically from ARBUTUS-RIDGE to WEST POINT GREY
```

    ## # A tibble: 22 × 4
    ##    neighbourhood_name       species_richness mean_longitude location
    ##    <chr>                               <int>          <dbl> <fct>   
    ##  1 ARBUTUS-RIDGE                         260           123. West    
    ##  2 DOWNTOWN                              168           123. West    
    ##  3 DUNBAR-SOUTHLANDS                     364           123. West    
    ##  4 FAIRVIEW                              223           123. West    
    ##  5 GRANDVIEW-WOODLAND                    310           123. East    
    ##  6 HASTINGS-SUNRISE                      347           123. East    
    ##  7 KENSINGTON-CEDAR COTTAGE              323           123. East    
    ##  8 KERRISDALE                            284           123. West    
    ##  9 KILLARNEY                             237           123. East    
    ## 10 KITSILANO                             336           123. West    
    ## # ℹ 12 more rows

``` r
# add location column to the old dataframe to create the new dataframe I need
task2.3.2 <- task1.2.3.3 %>%
  tibble::add_column(location = task2.3.1$location) %>%   # add new location column
  dplyr::relocate(location, .after = neighbourhood_name) %>%  
  dplyr::select(-TOTAL)                                   # remove TOTAL column
print(task2.3.2)
```

    ## # A tibble: 22 × 99
    ## # Rowwise: 
    ##    neighbourhood_name       location    ABIES  ACER AESCULUS AMELANCHIER  BETULA
    ##    <chr>                    <fct>       <dbl> <dbl>    <dbl>       <dbl>   <dbl>
    ##  1 ARBUTUS-RIDGE            West     0.00348  0.168 0.0259      0.00368  0.0149 
    ##  2 DOWNTOWN                 West     0.000194 0.396 0.00310     0        0.00233
    ##  3 DUNBAR-SOUTHLANDS        West     0.00106  0.262 0.0307      0.000425 0.0189 
    ##  4 FAIRVIEW                 West     0.00100  0.351 0.0120      0.00100  0.00750
    ##  5 GRANDVIEW-WOODLAND       East     0.000746 0.273 0.0152      0.00179  0.00776
    ##  6 HASTINGS-SUNRISE         East     0.000759 0.238 0.00910     0.00550  0.00171
    ##  7 KENSINGTON-CEDAR COTTAGE East     0.00208  0.221 0.0194      0.00109  0.00688
    ##  8 KERRISDALE               West     0.00144  0.274 0.0187      0.000865 0.0337 
    ##  9 KILLARNEY                East     0.000163 0.221 0.000651    0.000488 0.00553
    ## 10 KITSILANO                West     0.00209  0.272 0.0367      0.000246 0.00838
    ## # ℹ 12 more rows
    ## # ℹ 92 more variables: CALOCEDRUS <dbl>, CARPINUS <dbl>, CATALPA <dbl>,
    ## #   CEDRUS <dbl>, CELTIS <dbl>, CERCIDIPHYLLUM <dbl>, CHAMAECYPARIS <dbl>,
    ## #   CORNUS <dbl>, CORYLUS <dbl>, CRATAEGUS <dbl>, DAVIDIA <dbl>, FAGUS <dbl>,
    ## #   FRAXINUS <dbl>, GINKGO <dbl>, GLEDITSIA <dbl>, ILEX <dbl>, JUGLANS <dbl>,
    ## #   JUNIPERUS <dbl>, LABURNUM <dbl>, LIQUIDAMBAR <dbl>, LIRIODENDRON <dbl>,
    ## #   MAGNOLIA <dbl>, MALUS <dbl>, MESPILUS <dbl>, METASEQUOIA <dbl>, …
…
``` r
# use pivot_longer to create a tidy version of the dataframe
task2.3.3 <- task2.3.2 %>%
  tidyr::pivot_longer(
    cols = ABIES:VIBURNUM, 
    names_to = "genus", 
    values_to = "proportion")
print(task2.3.3)
```

    ## # A tibble: 2,134 × 4
    ##    neighbourhood_name location genus       proportion
    ##    <chr>              <fct>    <chr>            <dbl>
    ##  1 ARBUTUS-RIDGE      West     ABIES         0.00348 
    ##  2 ARBUTUS-RIDGE      West     ACER          0.168   
    ##  3 ARBUTUS-RIDGE      West     AESCULUS      0.0259  
    ##  4 ARBUTUS-RIDGE      West     AMELANCHIER   0.00368 
    ##  5 ARBUTUS-RIDGE      West     BETULA        0.0149  
    ##  6 ARBUTUS-RIDGE      West     CALOCEDRUS    0.000193
    ##  7 ARBUTUS-RIDGE      West     CARPINUS      0.0323  
    ##  8 ARBUTUS-RIDGE      West     CATALPA       0.000967
    ##  9 ARBUTUS-RIDGE      West     CEDRUS        0.00213 
    ## 10 ARBUTUS-RIDGE      West     CELTIS        0.000774
    ## # ℹ 2,124 more rows
…
